{
  "base_url": "/user/yasmineutt-mt15-2021-tp3-qk30ncj7/",
  "hostname": "0.0.0.0",
  "notebook_dir": "/home/jovyan",
  "password": false,
  "pid": 18,
  "port": 8888,
  "secure": false,
  "sock": "",
  "token": "A76zyrh_TT6IW1083wd8zw",
  "url": "http://0.0.0.0:8888/user/yasmineutt-mt15-2021-tp3-qk30ncj7/"
}